\BOOKMARK [0][-]{chapter*.1}{Artificer}{}% 1
\BOOKMARK [1][-]{subsection*.2}{Creating an artificer}{chapter*.1}% 2
\BOOKMARK [1][-]{section*.4}{Class Features}{chapter*.1}% 3
\BOOKMARK [2][-]{subsection*.8}{Spellcasting}{section*.4}% 4
\BOOKMARK [2][-]{subsection*.15}{Specialization}{section*.4}% 5
\BOOKMARK [2][-]{subsection*.16}{Invention}{section*.4}% 6
\BOOKMARK [2][-]{subsection*.17}{Ability Score Improvement}{section*.4}% 7
\BOOKMARK [2][-]{subsection*.18}{Extra attack}{section*.4}% 8
\BOOKMARK [1][-]{section*.19}{Specializations}{chapter*.1}% 9
\BOOKMARK [2][-]{subsection*.20}{Alchemy}{section*.19}% 10
\BOOKMARK [2][-]{subsection*.26}{Rune smithing}{section*.19}% 11
\BOOKMARK [2][-]{subsection*.28}{Planar Channeling}{section*.19}% 12
\BOOKMARK [1][-]{section*.34}{Inventions}{chapter*.1}% 13
\BOOKMARK [1][-]{section*.35}{Greater Inventions}{chapter*.1}% 14
\BOOKMARK [0][-]{chapter*.36}{Spells}{}% 15
\BOOKMARK [1][-]{subsection*.37}{Artificer spell list}{chapter*.36}% 16
\BOOKMARK [1][-]{section*.38}{Spell descriptions}{chapter*.36}% 17
